81 NONTERMINAL ADJP
2 NONTERMINAL ADVP+ADJ
251 NONTERMINAL SQ+VP
1 NONTERMINAL NP+S+VP
1 NONTERMINAL NP+ADVP
14 NONTERMINAL ADVP
113 NONTERMINAL PP+ADP
254 NONTERMINAL VP+VERB
1 NONTERMINAL SBAR+VP
27 NONTERMINAL PRT+PRT
23 NONTERMINAL WHNP+DET
38 NONTERMINAL ADVP+ADV
1 NONTERMINAL PP+PP+ADP
301 NONTERMINAL WHADVP+ADV
1 NONTERMINAL NP+PP
656 NONTERMINAL NP+NOUN
11 NONTERMINAL SBAR+S
30 NONTERMINAL WHADVP
103 NONTERMINAL NUM
1 NONTERMINAL VP+S+VP
19 NONTERMINAL ADJP+ADJ
803 NONTERMINAL VP
244 NONTERMINAL ADV
16 NONTERMINAL VP+NOUN
25 NONTERMINAL NP+DET
1024 NONTERMINAL PP
2 NONTERMINAL NP+S
4813 NONTERMINAL NP
2 NONTERMINAL NP+QP
10 NONTERMINAL SBAR+S+VP
1 NONTERMINAL PP+NOUN
6 NONTERMINAL PP+PRT
2349 NONTERMINAL VERB
85 NONTERMINAL S
4 NONTERMINAL NP+ADJ
1 NONTERMINAL NX
2 NONTERMINAL NP+VERB
3405 NONTERMINAL SBARQ
114 NONTERMINAL NP+PRON
7 NONTERMINAL QP
1010 NONTERMINAL ADP
1 NONTERMINAL NP+SBAR+S
3 NONTERMINAL NP+X
1 NONTERMINAL S+VP+VERB
68 NONTERMINAL CONJ
90 NONTERMINAL S+VP
1 NONTERMINAL WHNP+WHNP
73 NONTERMINAL PRON
17 NONTERMINAL X
569 NONTERMINAL WHNP
3 NONTERMINAL NP+NP
817 NONTERMINAL WHNP+PRON
24 NONTERMINAL WHPP
124 NONTERMINAL WHADJP
2032 NONTERMINAL .
1808 NONTERMINAL DET
2081 NONTERMINAL SQ
3852 NONTERMINAL NOUN
916 NONTERMINAL ADJ
50 NONTERMINAL NP+NUM
280 NONTERMINAL PRT
65 NONTERMINAL SBAR
7 UNARYRULE DET which
1 UNARYRULE ADVP+ADV after
17 UNARYRULE DET _RARE_
7 UNARYRULE NOUN York
28 UNARYRULE DET Which
7 UNARYRULE NOUN home
3 UNARYRULE VP+VERB open
12 UNARYRULE ADV far
5 UNARYRULE NOUN team
4 UNARYRULE NOUN miles
390 UNARYRULE DET What
15 UNARYRULE ADP with
5 UNARYRULE NP+NOUN president
3 UNARYRULE NP+NOUN miles
4 UNARYRULE NP+NOUN light
19 UNARYRULE VERB get
4 UNARYRULE NP+NOUN home
5 UNARYRULE VERB located
2 UNARYRULE NP+NOUN Africa
4 UNARYRULE VP+VERB begin
64 UNARYRULE . ,
4 UNARYRULE ADJ French
1 UNARYRULE PRT+PRT place
1 UNARYRULE NP+DET _RARE_
1 UNARYRULE NOUN work
7 UNARYRULE ADJ only
7 UNARYRULE NOUN State
16 UNARYRULE NOUN United
3 UNARYRULE WHNP+DET Which
17 UNARYRULE ADP In
50 UNARYRULE NOUN city
2 UNARYRULE VP+VERB form
5 UNARYRULE NOUN Mississippi
6 UNARYRULE NOUN horse
5 UNARYRULE NOUN show
1 UNARYRULE NOUN Texas
5 UNARYRULE ADJ female
47 UNARYRULE NP+PRON you
12 UNARYRULE WHADVP+ADV when
11 UNARYRULE NOUN capital
3 UNARYRULE NOUN London
247 UNARYRULE VERB was
1 UNARYRULE NP+NOUN Washington
1 UNARYRULE VERB open
6 UNARYRULE ADJ different
5 UNARYRULE VERB win
24 UNARYRULE PP+ADP for
14 UNARYRULE NOUN color
5 UNARYRULE VERB given
6 UNARYRULE NOUN bird
3 UNARYRULE NOUN Canada
69 UNARYRULE ADJ many
3 UNARYRULE VERB run
4 UNARYRULE NOUN mountain
16 UNARYRULE VP+NOUN mean
23 UNARYRULE VP+VERB born
8 UNARYRULE NOUN US
39 UNARYRULE ADP _RARE_
9 UNARYRULE NP+NOUN people
4 UNARYRULE NP+NOUN Spanish
2 UNARYRULE NOUN National
17 UNARYRULE NOUN population
19 UNARYRULE VERB find
8 UNARYRULE VP+VERB invented
5 UNARYRULE ADV long
7 UNARYRULE ADJ oldest
8 UNARYRULE NOUN movie
5 UNARYRULE NOUN difference
1 UNARYRULE WHNP+PRON Which
6 UNARYRULE CONJ or
3 UNARYRULE VP+VERB live
5 UNARYRULE NOUN percentage
16 UNARYRULE NUM _RARE_
1 UNARYRULE PRT _RARE_
6 UNARYRULE ADJ Spanish
13 UNARYRULE PRT <
3 UNARYRULE NOUN form
5 UNARYRULE ADJ European
70 UNARYRULE NOUN _ALL_CAPTIALS_
5 UNARYRULE NOUN South
4 UNARYRULE NP+NOUN Liberty
6 UNARYRULE NOUN school
5 UNARYRULE NUM one
154 UNARYRULE VERB did
1 UNARYRULE NP+NOUN average
3 UNARYRULE NP+NOUN baseball
1 UNARYRULE X _ALL_CAPTIALS_
11 UNARYRULE NOUN company
1 UNARYRULE VERB mean
2 UNARYRULE NP+NOUN French
5 UNARYRULE NOUN American
198 UNARYRULE DET a
1 UNARYRULE VP+VERB find
1 UNARYRULE ADVP+ADV _NUMERIC_
5 UNARYRULE DET some
1 UNARYRULE NOUN England
4 UNARYRULE VP+VERB do
7 UNARYRULE PRON _RARE_
3 UNARYRULE PRON I
2 UNARYRULE ADV Where
12 UNARYRULE VERB come
1 UNARYRULE ADJ mountain
21 UNARYRULE NP+DET there
5 UNARYRULE VERB said
1 UNARYRULE VERB work
5 UNARYRULE VERB had
6 UNARYRULE NOUN Tower
69 UNARYRULE ADP on
5 UNARYRULE . :
2 UNARYRULE NP+NUM one
1 UNARYRULE NOUN use
5 UNARYRULE VERB been
3 UNARYRULE ADJ Great
12 UNARYRULE VERB be
1 UNARYRULE VP+VERB get
9 UNARYRULE NOUN number
17 UNARYRULE VERB Name
108 UNARYRULE VERB does
3 UNARYRULE VERB buried
6 UNARYRULE NUM four
12 UNARYRULE NOUN War
110 UNARYRULE PRT to
2 UNARYRULE NP+NOUN London
5 UNARYRULE NP+NOUN place
1 UNARYRULE NP+NOUN dog
5 UNARYRULE PP+ADP into
7 UNARYRULE VERB died
1 UNARYRULE NP+NOUN countries
1 UNARYRULE ADJ home
1084 UNARYRULE DET the
4 UNARYRULE VERB write
3 UNARYRULE . <
1 UNARYRULE NOUN Spain
6 UNARYRULE NOUN money
32 UNARYRULE NOUN world
5 UNARYRULE VERB wrote
507 UNARYRULE ADJ _RARE_
16 UNARYRULE VERB known
4 UNARYRULE PP+ADP with
6 UNARYRULE NOUN West
3 UNARYRULE NP+NOUN Australia
1 UNARYRULE VP+VERB be
6 UNARYRULE ADP into
38 UNARYRULE ADP from
6 UNARYRULE NOUN North
151 UNARYRULE WHNP+PRON Who
2 UNARYRULE NUM _ALL_CAPTIALS_
4 UNARYRULE NP+NOUN Spain
7 UNARYRULE PRON your
17 UNARYRULE WHADVP+ADV Why
6 UNARYRULE WHNP+PRON who
16 UNARYRULE ADJ largest
13 UNARYRULE NOUN fear
1 UNARYRULE NP+NOUN school
18 UNARYRULE VERB made
1 UNARYRULE NP+NOUN America
10 UNARYRULE NOUN University
10 UNARYRULE NOUN Day
4 UNARYRULE VERB painted
8 UNARYRULE NP+PRON _RARE_
10 UNARYRULE VERB take
1 UNARYRULE NP+ADJ black
5 UNARYRULE NP+NOUN Earth
1 UNARYRULE PRT+PRT into
14 UNARYRULE ADP at
7 UNARYRULE VP+VERB mean
7 UNARYRULE . _RARE_
9 UNARYRULE ADV much
1 UNARYRULE VP+VERB did
6 UNARYRULE NOUN language
4 UNARYRULE NOUN _NUMERIC_
5 UNARYRULE NOUN water
1 UNARYRULE VP+VERB start
62 UNARYRULE ADJ first
1 UNARYRULE NP+NOUN Mississippi
5 UNARYRULE NOUN World
5 UNARYRULE NOUN battle
2 UNARYRULE NOUN top
3 UNARYRULE NOUN musical
22 UNARYRULE ADJ American
3 UNARYRULE NOUN office
33 UNARYRULE NP+PRON I
6 UNARYRULE VERB live
1 UNARYRULE PRT+PRT for
4 UNARYRULE NOUN animal
5 UNARYRULE NOUN song
22 UNARYRULE . .
8 UNARYRULE NOUN car
5 UNARYRULE NOUN birthstone
15 UNARYRULE NOUN States
9 UNARYRULE ADJ best
1 UNARYRULE NP+NOUN company
1 UNARYRULE NP+NOUN color
29 UNARYRULE NOUN state
6 UNARYRULE NOUN Kennedy
1 UNARYRULE ADVP+ADV best
126 UNARYRULE VERB are
4 UNARYRULE NP+NOUN Canada
2 UNARYRULE VERB cost
6 UNARYRULE NOUN Washington
4 UNARYRULE VP+VERB work
10 UNARYRULE NOUN kind
1 UNARYRULE NOUN Liberty
4 UNARYRULE NP+NOUN power
8 UNARYRULE ADJ tall
5 UNARYRULE NOUN house
8 UNARYRULE NOUN character
8 UNARYRULE ADP that
11 UNARYRULE VERB make
2 UNARYRULE ADJ musical
13 UNARYRULE PP+ADP from
3 UNARYRULE NP+X _RARE_
2 UNARYRULE VP+VERB run
4 UNARYRULE PP+ADP on
1 UNARYRULE ADV Why
9 UNARYRULE NOUN person
5 UNARYRULE NOUN Johnson
3 UNARYRULE PP+ADP by
16 UNARYRULE X _RARE_
35 UNARYRULE DET The
3 UNARYRULE NOUN types
5 UNARYRULE NOUN years
21 UNARYRULE VP+VERB die
156 UNARYRULE PRT <s
5 UNARYRULE NOUN group
4 UNARYRULE VP+VERB made
8 UNARYRULE NOUN colors
4 UNARYRULE ADV how
15 UNARYRULE NOUN president
16 UNARYRULE NUM two
1 UNARYRULE PRON it
4 UNARYRULE NP+NOUN Texas
1 UNARYRULE PRT+PRT on
118 UNARYRULE . <<
7 UNARYRULE NOUN point
9 UNARYRULE NOUN John
14 UNARYRULE ADJ much
5 UNARYRULE VP+VERB located
15 UNARYRULE PRON his
7 UNARYRULE VP+VERB built
5 UNARYRULE NOUN party
667 UNARYRULE VERB is
31 UNARYRULE VERB <s
3 UNARYRULE VP+VERB buried
14 UNARYRULE VERB used
1 UNARYRULE S+VP+VERB _RARE_
1 UNARYRULE VERB born
494 UNARYRULE NP+NOUN _RARE_
10 UNARYRULE ADJ old
1 UNARYRULE VP+VERB make
2 UNARYRULE VP+VERB cost
2628 UNARYRULE NOUN _RARE_
6 UNARYRULE NOUN George
5 UNARYRULE VERB causes
7 UNARYRULE VP+VERB have
5 UNARYRULE NOUN address
18 UNARYRULE ADJP+ADJ _RARE_
20 UNARYRULE ADP by
7 UNARYRULE NOUN actor
5 UNARYRULE NOUN William
1 UNARYRULE VP+VERB founded
58 UNARYRULE NUM _NUMERIC_
13 UNARYRULE NOUN New
476 UNARYRULE VERB _RARE_
1 UNARYRULE NP+NOUN state
2 UNARYRULE NP+NOUN rain
3 UNARYRULE NOUN Great
14 UNARYRULE PRON its
11 UNARYRULE NOUN River
2 UNARYRULE PP+ADP at
6 UNARYRULE VERB founded
1 UNARYRULE NOUN light
5 UNARYRULE PRON What
18 UNARYRULE VP+VERB called
1 UNARYRULE NP+NOUN animal
10 UNARYRULE VERB say
1 UNARYRULE VERB name
2 UNARYRULE VP+VERB play
3 UNARYRULE NOUN animals
5 UNARYRULE ADJ fastest
8 UNARYRULE PRON their
1 UNARYRULE VP+VERB used
17 UNARYRULE PP+ADP of
2 UNARYRULE NP+NOUN year
2 UNARYRULE VP+VERB use
13 UNARYRULE NOUN President
5 UNARYRULE ADJ black
1 UNARYRULE NP+NOUN Johnson
3 UNARYRULE NOUN place
1 UNARYRULE ADJP+ADJ open
5 UNARYRULE NOUN eye
1 UNARYRULE VP+VERB fear
30 UNARYRULE DET an
5 UNARYRULE NOUN leader
30 UNARYRULE ADVP+ADV _RARE_
3 UNARYRULE NOUN Earth
1 UNARYRULE NOUN I
6 UNARYRULE NP+PRON they
4 UNARYRULE NOUN play
7 UNARYRULE ADJ British
2 UNARYRULE NOUN power
5 UNARYRULE ADVP+ADV first
10 UNARYRULE NOUN nickname
11 UNARYRULE NOUN origin
6 UNARYRULE NOUN governor
4 UNARYRULE NP+NOUN earth
6 UNARYRULE NOUN America
5 UNARYRULE PRON her
9 UNARYRULE NOUN film
9 UNARYRULE PRT+PRT out
7 UNARYRULE NOUN term
3 UNARYRULE ADJ National
1 UNARYRULE NP+NOUN battle
5 UNARYRULE NOUN Lincoln
89 UNARYRULE NOUN name
15 UNARYRULE NOUN game
8 UNARYRULE NOUN King
10 UNARYRULE VERB become
1695 UNARYRULE . ?
4 UNARYRULE VERB start
70 UNARYRULE WHADVP+ADV How
25 UNARYRULE ADP as
4 UNARYRULE NOUN sport
13 UNARYRULE VERB have
7 UNARYRULE NOUN war
5 UNARYRULE NOUN ball
4 UNARYRULE ADJ North
14 UNARYRULE ADJ most
8 UNARYRULE NOUN moon
4 UNARYRULE NP+NOUN France
2 UNARYRULE VERB built
1 UNARYRULE NP+DET that
5 UNARYRULE ADJ tallest
8 UNARYRULE NOUN names
5 UNARYRULE ADP out
9 UNARYRULE NP+NOUN water
7 UNARYRULE NOUN river
118 UNARYRULE . ``
10 UNARYRULE VERB call
5 UNARYRULE WHNP+PRON what
40 UNARYRULE PP+ADP in
7 UNARYRULE NOUN countries
10 UNARYRULE ADJ fast
13 UNARYRULE DET what
32 UNARYRULE NP+NOUN _ALL_CAPTIALS_
9 UNARYRULE ADJ highest
9 UNARYRULE ADJ real
6 UNARYRULE PP+PRT to
6 UNARYRULE ADJ top
3 UNARYRULE NOUN Australia
2 UNARYRULE VP+VERB become
380 UNARYRULE ADP of
5 UNARYRULE NP+NOUN Mars
2 UNARYRULE WHADVP+ADV _RARE_
5 UNARYRULE VERB killed
5 UNARYRULE ADJ longest
1 UNARYRULE VERB _NUMERIC_
8 UNARYRULE ADP between
1 UNARYRULE NOUN start
5 UNARYRULE ADJ South
1 UNARYRULE ADJ New
20 UNARYRULE VERB were
5 UNARYRULE ADP before
1 UNARYRULE VP+VERB killed
2 UNARYRULE NP+NOUN office
1 UNARYRULE NP+VERB called
5 UNARYRULE VERB should
108 UNARYRULE WHADVP+ADV When
1 UNARYRULE VP+VERB write
5 UNARYRULE NOUN Vietnam
47 UNARYRULE NP+NUM _NUMERIC_
11 UNARYRULE NOUN word
2 UNARYRULE ADV about
18 UNARYRULE WHNP+DET that
3 UNARYRULE VP+VERB died
1 UNARYRULE PP+PP+ADP in
8 UNARYRULE NOUN book
11 UNARYRULE NOUN body
60 UNARYRULE CONJ and
6 UNARYRULE VERB use
2 UNARYRULE NP+NOUN types
3 UNARYRULE NP+ADJ _RARE_
1 UNARYRULE VP+VERB painted
1 UNARYRULE ADJ West
1 UNARYRULE WHNP+PRON _RARE_
2 UNARYRULE NOUN French
3 UNARYRULE NOUN British
6 UNARYRULE ADJ high
5 UNARYRULE NOUN star
272 UNARYRULE ADP in
149 UNARYRULE ADV How
5 UNARYRULE NOUN rate
2 UNARYRULE NOUN earth
7 UNARYRULE NOUN dog
41 UNARYRULE NOUN country
1 UNARYRULE VERB begin
6 UNARYRULE NP+NOUN Alaska
35 UNARYRULE VERB can
2 UNARYRULE CONJ _RARE_
7 UNARYRULE NOUN abbreviation
43 UNARYRULE NOUN U.S.
4 UNARYRULE NOUN Africa
7 UNARYRULE PRT+PRT _RARE_
5 UNARYRULE ADJ common
6 UNARYRULE NOUN system
1 UNARYRULE DET that
78 UNARYRULE ADP for
1 UNARYRULE NOUN run
21 UNARYRULE ADV most
1 UNARYRULE ADJ capital
2 UNARYRULE ADVP+ADJ _RARE_
5 UNARYRULE NOUN life
1 UNARYRULE PP+ADP as
6 UNARYRULE NOUN currency
90 UNARYRULE WHADVP+ADV Where
2 UNARYRULE ADV only
2 UNARYRULE NP+DET some
5 UNARYRULE NOUN college
1 UNARYRULE NOUN Spanish
1 UNARYRULE NOUN France
6 UNARYRULE ADP after
7 UNARYRULE NOUN date
3 UNARYRULE PRON what
20 UNARYRULE VERB stand
38 UNARYRULE VERB has
2 UNARYRULE NP+NOUN animals
37 UNARYRULE ADV _RARE_
2 UNARYRULE WHADVP+ADV how
1 UNARYRULE NP+NOUN sport
6 UNARYRULE NOUN flight
4 UNARYRULE NP+NOUN England
3 UNARYRULE ADJ long
10 UNARYRULE VERB play
7 UNARYRULE PRT+PRT up
8 UNARYRULE NOUN day
653 UNARYRULE WHNP+PRON What
9 UNARYRULE ADJ national
8 UNARYRULE ADJ famous
4 UNARYRULE NOUN rain
17 UNARYRULE ADJ _NUMERIC_
10 UNARYRULE NOUN baseball
5 UNARYRULE NP+PRON he
1 UNARYRULE PP+NOUN _RARE_
5 UNARYRULE PRON my
15 UNARYRULE NP+PRON it
8 UNARYRULE NOUN woman
11 UNARYRULE VERB invented
14 UNARYRULE VERB called
2 UNARYRULE WHNP+DET which
8 UNARYRULE NOUN St.
11 UNARYRULE NOUN sun
1 UNARYRULE NP+NOUN Vietnam
7 UNARYRULE ADJ average
2 UNARYRULE NOUN mean
1 UNARYRULE NOUN cost
1 UNARYRULE NP+VERB _RARE_
106 UNARYRULE VP+VERB _RARE_
1 UNARYRULE NP+NUM two
2 UNARYRULE ADJ _ALL_CAPTIALS_
78 UNARYRULE VERB do
13 UNARYRULE NOUN people
5 UNARYRULE ADP about
2 UNARYRULE NP+NOUN President
11 UNARYRULE VERB makes
42 UNARYRULE NOUN year
8 UNARYRULE VERB being
5 UNARYRULE ADJ last
1 BINARYRULE SBARQ VP .
3 BINARYRULE NP X .
13 BINARYRULE S NP VP
1 BINARYRULE NP . DET
1 BINARYRULE NP VERB PP
1 BINARYRULE ADJP . SBAR+S
14 BINARYRULE PP ADP S+VP
3 BINARYRULE SQ NP+NOUN PP
40 BINARYRULE PP ADP NP+NUM
8 BINARYRULE SQ VERB NP+DET
1 BINARYRULE WHPP ADP WHNP+PRON
1 BINARYRULE VP VERB ADVP+ADJ
283 BINARYRULE SBARQ WHADVP+ADV SBARQ
1 BINARYRULE SBAR+S NP S
10 BINARYRULE ADJP ADJ PP
21 BINARYRULE NP CONJ NOUN
1 BINARYRULE VP . NP+S
1 BINARYRULE WHPP PRT WHNP+PRON
4 BINARYRULE PP ADP NOUN
2 BINARYRULE NP+S NP VP
2 BINARYRULE WHNP ADV ADJ
1 BINARYRULE VP PRT+PRT SBAR
15 BINARYRULE SQ+VP VERB NP+NOUN
2 BINARYRULE VP ADVP+ADV PP
1 BINARYRULE ADJP ADV VERB
2 BINARYRULE SQ NP+X VP+NOUN
4 BINARYRULE S NP VP+VERB
1 BINARYRULE NP CONJ NP+NUM
5 BINARYRULE ADJP ADJ ADJP
1 BINARYRULE VP NP PP+NOUN
35 BINARYRULE S+VP PRT VP
1 BINARYRULE WHNP NOUN ADJ
1 BINARYRULE PP . PP
1 BINARYRULE SQ NP+NOUN VP+NOUN
26 BINARYRULE NP NUM NP
2 BINARYRULE VP VP NP
2 BINARYRULE SQ NP ADJP
505 BINARYRULE SBARQ WHNP SBARQ
4 BINARYRULE VP PRT VP+VERB
1 BINARYRULE PP PRT VP
6 BINARYRULE WHNP PRON NOUN
1 BINARYRULE NP VERB PRT
1 BINARYRULE PP ADP NP+QP
2 BINARYRULE ADJP CONJ ADJ
1 BINARYRULE S+VP VERB NP+NP
21 BINARYRULE SBAR ADP S
2 BINARYRULE VP CONJ VERB
2 BINARYRULE ADJP ADJ NOUN
3 BINARYRULE VP PRT+PRT NP
1 BINARYRULE SQ VERB S+VP
1 BINARYRULE ADVP ADVP PP
3 BINARYRULE VP CONJ VP
20 BINARYRULE WHADVP ADV ADV
1 BINARYRULE NP NOUN ADV
3 BINARYRULE SBARQ PP SBARQ
11 BINARYRULE S+VP VERB VP
1 BINARYRULE SBAR+S NP+PRON VP+VERB
1 BINARYRULE PP ADV PP
247 BINARYRULE SBARQ SQ+VP .
1 BINARYRULE VP NP+NUM PP
770 BINARYRULE NP NOUN NOUN
1 BINARYRULE PP PRT NOUN
2 BINARYRULE ADJP CONJ ADJP
1 BINARYRULE SBARQ SBARQ .
1 BINARYRULE NP NP+NUM PP+ADP
1 BINARYRULE NX NOUN NOUN
9 BINARYRULE SQ NP PP
1 BINARYRULE WHNP WHNP NP
79 BINARYRULE SQ+VP VERB VP
22 BINARYRULE SQ+VP VERB PP
4 BINARYRULE WHNP DET WHNP
14 BINARYRULE VP VERB VP+VERB
1 BINARYRULE NP ADJ .
1 BINARYRULE SQ+VP VERB ADVP+ADV
165 BINARYRULE NP NOUN PRT
1 BINARYRULE NP PP PP
2 BINARYRULE NP NP+NOUN VP+VERB
1 BINARYRULE VP VERB SBAR+VP
28 BINARYRULE NP NP+NOUN NP
1 BINARYRULE NP ADJP .
1 BINARYRULE NP NUM NUM
3 BINARYRULE WHADVP ADV PP
41 BINARYRULE NP NOUN PP
1 BINARYRULE NP QP PP
808 BINARYRULE SBARQ WHNP+PRON SBARQ
1 BINARYRULE NP NP S
1 BINARYRULE NP+NP NP PP
1 BINARYRULE SQ+VP VERB SBAR
1 BINARYRULE PP NP+NUM PP
1 BINARYRULE VP NOUN PP+ADP
579 BINARYRULE NP DET NOUN
1 BINARYRULE VP VERB NP+QP
4 BINARYRULE NP NP NP+NOUN
2 BINARYRULE VP NP+PRON NP
286 BINARYRULE PP ADP NP+NOUN
1 BINARYRULE VP VERB WHADJP
1 BINARYRULE ADVP CONJ ADV
3 BINARYRULE SBARQ SBAR SBARQ
148 BINARYRULE VP VERB NP
1 BINARYRULE NP NP NP+PP
121 BINARYRULE SQ+VP VERB NP
1 BINARYRULE SBAR WHNP+DET VP
2 BINARYRULE VP VERB WHNP
1 BINARYRULE S+VP VP VP
1 BINARYRULE WHADJP ADV ADJP
1 BINARYRULE SQ+VP ADVP VP
1 BINARYRULE VP VP+VERB VP
1 BINARYRULE SBARQ NP .
1 BINARYRULE VP NP+PRON ADJP+ADJ
42 BINARYRULE NP PRON NOUN
62 BINARYRULE SQ NP+NOUN VP
4 BINARYRULE NP QP NOUN
2 BINARYRULE NP X X
45 BINARYRULE NP NUM NOUN
3 BINARYRULE VP NP PP+ADP
164 BINARYRULE WHNP DET NP
3 BINARYRULE VP NP+NOUN S+VP
2 BINARYRULE NP NP ADJP
10 BINARYRULE SBAR WHADVP+ADV S
9 BINARYRULE NP VERB NOUN
619 BINARYRULE SQ VERB SQ
3 BINARYRULE NP DET NUM
2 BINARYRULE SQ PP PP
1 BINARYRULE VP NP ADVP
2 BINARYRULE SQ NP+NOUN NP
1 BINARYRULE NP PRON PRT
9 BINARYRULE NP DET ADJ
1 BINARYRULE NP+QP ADJ QP
1 BINARYRULE ADJP NOUN ADJ
1 BINARYRULE SQ NP+PRON ADJP
5 BINARYRULE WHADJP ADV ADV
1 BINARYRULE NP . NP+NUM
1 BINARYRULE NP NP+NUM NP
1 BINARYRULE SQ NP+NOUN ADJP
2 BINARYRULE S+VP VERB NP+NOUN
8 BINARYRULE NP CONJ NP+NOUN
1 BINARYRULE NP ADJ NP+NOUN
1 BINARYRULE ADJP ADP WHNP+PRON
1 BINARYRULE WHPP PRT WHNP+DET
1 BINARYRULE NP+QP DET NUM
17 BINARYRULE NP . NOUN
323 BINARYRULE NP NOUN NP
11 BINARYRULE PP PP PP
27 BINARYRULE VP VERB NP+NOUN
1 BINARYRULE ADJP ADJ VP
1 BINARYRULE VP NP ADVP+ADJ
1 BINARYRULE SQ VP+VERB NP
75 BINARYRULE SQ NP+PRON VP
1 BINARYRULE NP . S+VP
12 BINARYRULE VP ADVP+ADV VP
103 BINARYRULE VP VERB VP
2 BINARYRULE VP ADJ VP
31 BINARYRULE NP NP+NOUN PP
6 BINARYRULE VP PRT+PRT VP
1 BINARYRULE ADVP ADV .
1 BINARYRULE NP+PP PP PP
2 BINARYRULE NP NP+NOUN SBAR
10 BINARYRULE PP PRT NP+NOUN
3 BINARYRULE VP PRT+PRT PP
1 BINARYRULE VP NOUN NP
1 BINARYRULE ADJP NUM NOUN
5 BINARYRULE NP NP PP+ADP
3 BINARYRULE ADJP ADV ADJP
1 BINARYRULE NP . PP
1 BINARYRULE SQ NP+NP VP+VERB
1 BINARYRULE NP+SBAR+S ADVP+ADV S
1 BINARYRULE VP NP SBAR
2 BINARYRULE SBARQ SBARQ SBARQ
1 BINARYRULE NP VERB NP+NOUN
8 BINARYRULE SQ NP NP
11 BINARYRULE S+VP VERB PP
5 BINARYRULE SBAR+S NP VP
2 BINARYRULE QP ADP NUM
1 BINARYRULE SQ+VP VP VP
1 BINARYRULE PP PRT NP+DET
17 BINARYRULE ADJP ADV ADJ
2 BINARYRULE VP ADV VERB
4 BINARYRULE SQ NP ADJP+ADJ
1 BINARYRULE NP NP+NOUN PP+ADP
1 BINARYRULE VP NP+NOUN ADVP
1 BINARYRULE SQ ADJP+ADJ PP
1 BINARYRULE NP ADJP ADVP
172 BINARYRULE SQ NP VP+VERB
7 BINARYRULE ADJP DET ADJ
6 BINARYRULE S NP+NOUN VP
1 BINARYRULE SQ VERB NP+X
1 BINARYRULE ADJP X .
20 BINARYRULE WHNP WHNP PP
1 BINARYRULE WHNP WHADJP PP
1 BINARYRULE NP NP+NOUN .
2 BINARYRULE VP PP+ADP PP
1 BINARYRULE SBAR WHNP SBAR
20 BINARYRULE WHNP WHADJP NP
1 BINARYRULE VP ADJP+ADJ PP
1 BINARYRULE VP VERB .
1 BINARYRULE VP NP+NP PP
1 BINARYRULE SBARQ WHNP+WHNP SBARQ
1 BINARYRULE VP NOUN NP+NOUN
1 BINARYRULE VP PP WHPP
4 BINARYRULE S VP S
3 BINARYRULE S+VP . VP
1 BINARYRULE ADJP ADVP VERB
42 BINARYRULE SBARQ WHADJP SBARQ
15 BINARYRULE NP NOUN NUM
3 BINARYRULE VP VERB PP+PRT
1 BINARYRULE SBARQ SQ+VP SBARQ
2 BINARYRULE VP VERB ADJP
1 BINARYRULE SQ NP NP+NOUN
20 BINARYRULE SBARQ WHPP SBARQ
1 BINARYRULE VP VERB PP+PP+ADP
1 BINARYRULE VP . S
2 BINARYRULE SBARQ . .
3 BINARYRULE WHADVP ADV ADJ
1 BINARYRULE SQ NP NP+VERB
2 BINARYRULE VP NP NP
3 BINARYRULE NP VERB NP
6 BINARYRULE VP PRT VP
1 BINARYRULE VP PP+PRT PP
9 BINARYRULE SBAR+S+VP PRT VP
13 BINARYRULE SQ NP+DET PP
1 BINARYRULE VP NP+NOUN VP+VERB
8 BINARYRULE SQ ADVP+ADV VP
1 BINARYRULE WHNP DET S
2 BINARYRULE SQ+VP ADVP+ADV VP
1 BINARYRULE NP ADJP PP
1 BINARYRULE NP ADV .
7 BINARYRULE S NP+PRON VP+VERB
12 BINARYRULE S NP+PRON VP
3 BINARYRULE PP ADP NP+ADJ
4 BINARYRULE VP VERB NP+PRON
1436 BINARYRULE SBARQ SQ .
1 BINARYRULE SQ ADVP+ADV VP+VERB
2 BINARYRULE ADJP ADJ S+VP
1 BINARYRULE VP NP+NOUN VP
1 BINARYRULE NP+S+VP VERB VP
2 BINARYRULE NP NP ADJ
1 BINARYRULE NP NUM .
263 BINARYRULE WHNP DET NOUN
1 BINARYRULE PP NP PP
2 BINARYRULE VP VERB S
2 BINARYRULE QP ADV NUM
477 BINARYRULE NP ADJ NOUN
1 BINARYRULE NP NOUN X
30 BINARYRULE PP PRT NP
1 BINARYRULE VP VERB NP+SBAR+S
1 BINARYRULE SQ ADV VP
138 BINARYRULE NP NP NP
1 BINARYRULE SQ+VP VP PP
18 BINARYRULE SQ VERB PP
63 BINARYRULE SQ VERB VP
2 BINARYRULE ADVP ADV ADVP
2 BINARYRULE VP PP NP
3 BINARYRULE NP NP .
2 BINARYRULE SQ NP VERB
1 BINARYRULE SBAR WHNP S
26 BINARYRULE NP ADJP NOUN
1 BINARYRULE VP NP VP+S+VP
1 BINARYRULE SBAR SQ+VP .
3 BINARYRULE S+VP VERB ADJP+ADJ
118 BINARYRULE WHADJP ADV ADJ
13 BINARYRULE SQ NP VP+NOUN
4 BINARYRULE SQ VP PP
1 BINARYRULE VP NOUN PP
2 BINARYRULE SQ VERB ADVP
4 BINARYRULE WHNP ADJ NOUN
1 BINARYRULE NP NP NX
1 BINARYRULE SQ NP+ADJ SQ
1 BINARYRULE S . S
1 BINARYRULE ADJP ADJP ADJP
4 BINARYRULE ADVP ADV ADV
2 BINARYRULE NP VERB .
1 BINARYRULE NP NOUN ADVP+ADV
1 BINARYRULE SQ VP+VERB SQ
168 BINARYRULE SQ NP VP
1 BINARYRULE ADJP ADJ PP+PRT
6 BINARYRULE NP ADV NP
1 BINARYRULE VP NP+PRON PP
1 BINARYRULE NP PP VP
1 BINARYRULE S PP S
1 BINARYRULE VP PRT+PRT SBARQ
1 BINARYRULE NP NOUN PP+ADP
4 BINARYRULE SQ NP SBAR
12 BINARYRULE S+VP VERB NP
1 BINARYRULE WHNP NP NOUN
6 BINARYRULE NP X NP
1 BINARYRULE NP NP+NUM PP
1 BINARYRULE VP VERB NP+S+VP
20 BINARYRULE VP PP PP
1 BINARYRULE ADJP ADJ .
2 BINARYRULE NP ADJ ADJ
1 BINARYRULE NP PRON .
1 BINARYRULE WHNP WHNP NP+NOUN
3 BINARYRULE VP . VP
11 BINARYRULE SQ NP PP+ADP
3 BINARYRULE ADVP ADV PP
1 BINARYRULE SBAR+S NP VP+VERB
1 BINARYRULE VP NP+NOUN PRT+PRT
1 BINARYRULE SBAR+S+VP PRT VP+VERB
9 BINARYRULE ADJP ADJ ADJ
1 BINARYRULE PP ADP NP+VERB
25 BINARYRULE NP CONJ NP
1 BINARYRULE NP NP NP+ADVP
3 BINARYRULE SQ NP+NOUN SQ
3 BINARYRULE SQ+VP VERB SBAR+S
7 BINARYRULE SBARQ . SBARQ
4 BINARYRULE PP ADP VP
28 BINARYRULE SQ NP+NOUN VP+VERB
2 BINARYRULE S+VP VERB S
1 BINARYRULE PP ADP NP+PRON
3 BINARYRULE VP VERB ADJP+ADJ
17 BINARYRULE SBAR WHNP+DET S+VP
1 BINARYRULE VP VP PP
1 BINARYRULE SBARQ WHNP SQ+VP
46 BINARYRULE VP NP PP
3 BINARYRULE SQ+VP VERB S+VP
216 BINARYRULE NP ADJ NP
1 BINARYRULE WHNP+WHNP DET NP
21 BINARYRULE WHPP ADP WHNP
2 BINARYRULE WHNP WHADJP WHNP
1 BINARYRULE SQ NP+NOUN ADJP+ADJ
4 BINARYRULE VP ADVP+ADV VP+VERB
3 BINARYRULE NP . PRON
1 BINARYRULE QP DET NUM
2 BINARYRULE VP ADJP PP
2 BINARYRULE NP . ADJP+ADJ
25 BINARYRULE S VP .
7 BINARYRULE S NP S
3 BINARYRULE VP NP S+VP
1 BINARYRULE VP NP+NOUN SBAR
8 BINARYRULE SQ VERB ADJP
1 BINARYRULE SQ ADJP SBAR
1 BINARYRULE QP ADJ QP
2 BINARYRULE VP S PP
3 BINARYRULE WHNP PRON WHNP
1 BINARYRULE SQ VERB ADJP+ADJ
2 BINARYRULE WHADVP WHADVP PP
5 BINARYRULE ADJP . ADJP
12 BINARYRULE VP NP+NOUN PP
12 BINARYRULE NP ADJP NP
4 BINARYRULE SQ NP+PRON SQ
1 BINARYRULE SBAR WHADVP+ADV PP
71 BINARYRULE SQ VERB NP+NOUN
2 BINARYRULE NP NOUN ADJ
26 BINARYRULE SBARQ WHADVP SBARQ
1 BINARYRULE SBAR+VP PRT VP
2 BINARYRULE SBARQ SQ SBARQ
4 BINARYRULE S . .
2 BINARYRULE VP . NP
1 BINARYRULE VP . S+VP
7 BINARYRULE S+VP PRT VP+VERB
2 BINARYRULE VP VP SBAR
1 BINARYRULE VP+S+VP PRT VP
1 BINARYRULE ADVP . ADVP
97 BINARYRULE NP NOUN .
1 BINARYRULE SQ . PP
4 BINARYRULE NP NP+NOUN VP
5 BINARYRULE SBAR WHADVP+ADV S+VP
1 BINARYRULE S+VP VERB ADJP
1 BINARYRULE ADVP ADV NP
1 BINARYRULE ADJP NOUN VERB
1 BINARYRULE SBAR WHPP S
1 BINARYRULE VP NP ADJP+ADJ
1 BINARYRULE QP DET NOUN
4 BINARYRULE WHNP ADV ADV
3 BINARYRULE NP NP+DET PP
117 BINARYRULE NP . NP
141 BINARYRULE VP VERB PP
5 BINARYRULE WHNP DET NP+NOUN
1 BINARYRULE SBAR WHNP+DET S+VP+VERB
7 BINARYRULE SBARQ WHNP SQ
1 BINARYRULE NP+NP . NP
3 BINARYRULE SQ NP+PRON PP
2 BINARYRULE SBARQ CONJ SBARQ
2 BINARYRULE VP ADVP+ADV VERB
2 BINARYRULE SBARQ WHADVP+ADV SQ
1 BINARYRULE VP CONJ VP+VERB
1 BINARYRULE VP VERB ADVP
601 BINARYRULE PP ADP NP
3 BINARYRULE VP ADV VP
11 BINARYRULE NP NP S+VP
3 BINARYRULE WHNP PRON NP
77 BINARYRULE VP VERB PP+ADP
1 BINARYRULE SQ+VP VERB S
2 BINARYRULE NP NOUN SBAR
2 BINARYRULE WHADVP ADV WHADVP
1 BINARYRULE S NP+NUM VP
1 BINARYRULE NP ADJP NP+NOUN
1 BINARYRULE S+VP VERB ADVP+ADV
1 BINARYRULE SQ VERB VP+VERB
2 BINARYRULE PP PRT NP+NUM
58 BINARYRULE WHNP WHADJP NOUN
1 BINARYRULE NP ADJ NUM
10 BINARYRULE NP NP SBAR+S+VP
2 BINARYRULE WHNP WHNP+DET PP
15 BINARYRULE NP . NP+NOUN
1 BINARYRULE VP PRT+PRT WHPP
3 BINARYRULE WHNP NOUN NOUN
2 BINARYRULE NP . NUM
1 BINARYRULE SBARQ WHNP+PRON SQ+VP
1 BINARYRULE NP X NOUN
85 BINARYRULE NP NP NOUN
8 BINARYRULE VP VERB PRT+PRT
1 BINARYRULE SQ VP SBAR
1 BINARYRULE VP PP VP
2 BINARYRULE VP . PP
1 BINARYRULE VP VP NP+NOUN
12 BINARYRULE VP VERB SBAR
30 BINARYRULE NP NP SBAR
14 BINARYRULE NP PRON NP
2 BINARYRULE NP NP PRT
21 BINARYRULE NP NP VP
506 BINARYRULE NP NP PP
1 BINARYRULE ADJP ADJ PP+ADP
1 BINARYRULE PP ADV ADP
653 BINARYRULE SQ VERB NP
1 BINARYRULE VP VP VP
5 BINARYRULE SQ NP SQ
1 BINARYRULE NP+NP DET NP
1 BINARYRULE NP DET X
2 BINARYRULE SBAR+S NP+PRON VP
1 BINARYRULE ADJP . ADJ
3 BINARYRULE VP VERB ADVP+ADV
1 BINARYRULE NP NP PP+PRT
1 BINARYRULE SQ NP+S VP
1 BINARYRULE VP NP VERB
766 BINARYRULE NP DET NP
1 BINARYRULE ADJP NUM ADJ
2 BINARYRULE VP PRT+PRT PP+ADP
1 BINARYRULE NP NP WHPP
1 BINARYRULE NP+ADVP . ADVP
24 BINARYRULE VP VERB S+VP
2 BINARYRULE PP ADP SBAR
18 BINARYRULE VP NP VP
1 BINARYRULE VP NP VP+VERB
1 BINARYRULE VP ADV NP
1 BINARYRULE SBARQ WHNP+DET SBARQ
8 BINARYRULE SQ NP+NOUN PP+ADP
1 BINARYRULE ADJP ADJ PRT+PRT
1 BINARYRULE ADJP NOUN ADJP
6 BINARYRULE PP ADP PP
1 BINARYRULE SQ NP+NOUN ADVP
1 BINARYRULE NP ADJP+ADJ NP
1 BINARYRULE SBAR+S NP+NOUN VP
5 BINARYRULE SBAR WHNP+PRON S+VP
1 BINARYRULE SQ ADV SQ
6 BINARYRULE NP NP SBAR+S
1 BINARYRULE SQ VERB SBAR+S
